Data Visualization / Group Project 8(A)
…
    lat = as.numeric(lat),
    long = as.numeric(long),
    number_of_reads = as.numeric(number_of_reads),
    endogeneous_content = as.numeric(endogeneous_content),
    nuclear_coverage = as.numeric(nuclear_coverage),
    mt_dna_coverage = as.numeric(mt_dna_coverage),
    n_snp_call = as.numeric(n_snp_call)
    )

Finally, we can see our new data frame

df

## # A tibble: 98 × 21
##    extract_id depository_id   dog_wolf_status country site_name analysed_nuclear
##    <chr>      <chr>           <fct>           <fct>   <chr>     <fct>           
##  1 JBG43      11S1232 I15 PP… Dog             USA     Janey B.… 0               
##  2 JBG41      11S1232 7892-1  Dog             USA     Janey B.… 0               
##  3 JBG17      11S1232 2601-1  Dog             USA     Janey B.… 0               
##  4 JBG11      11S1232 1671-1  Dog             USA     Janey B.… 0               
##  5 JBG42      11S1232 F9 PP4… Dog             USA     Janey B.… 0               
##  6 JBG13      11S1232 939-1   Dog             USA     Janey B.… 0               
##  7 JBG45      11S1232 L17 P … Dog             USA     Janey B.… 0               
##  8 JBG24      11S1232 2793-2  Dog             USA     Janey B.… 0               
##  9 JBG12      11S1232 845-1   Dog             USA     Janey B.… 0               
## 10 JBG48      11S1232 3993-2  Dog             USA     Janey B.… 0               
## # ℹ 88 more rows
## # ℹ 15 more variables: mt_dna_analysed <fct>, mt_dna_capture <fct>,
## #   extraction_lab <fct>, lat <dbl>, long <dbl>, radiocarbon_lab_number <chr>,
## #   direct_date <fct>, radiocarbon_date_95_4_percent_interval_lab_number <chr>,
## #   age_from_context <chr>, number_of_reads <dbl>, endogeneous_content <dbl>,
## #   nuclear_coverage <dbl>, sex <fct>, mt_dna_coverage <dbl>, n_snp_call <dbl>
…
